{vertex(b,none), vertex(a,none), vertex(c,none), vertex(f,none), vertex(e,none), vertex(d,none), edge(1,in), edge(2,in), edge(3,in), edge(4,in), edge(5,in), edge(6,in), edge(7,in)}
{vertex(b,none), vertex(a,none), vertex(c,none), vertex(f,none), vertex(e,none), vertex(d,none), edge(1,in), edge(2,in), edge(3,in), edge(4,in), edge(5,in), edge(6,in), edge(7,in)}
{vertex(b,none), vertex(a,none), vertex(c,none), vertex(f,none), vertex(e,none), vertex(d,none), edge(1,in), edge(2,in), edge(3,in), edge(4,in), edge(5,in), edge(6,in), edge(7,in)}
{vertex(b,none), vertex(a,none), vertex(c,none), vertex(f,none), vertex(e,none), vertex(d,none), edge(1,in), edge(2,in), edge(3,in), edge(4,in), edge(5,in), edge(6,in), edge(7,in)}
{vertex(b,none), vertex(a,none), vertex(c,none), vertex(f,none), vertex(e,none), vertex(d,none), edge(1,in), edge(2,in), edge(3,in), edge(4,in), edge(5,in), edge(6,in), edge(7,in)}
{vertex(b,none), vertex(a,none), vertex(c,none), vertex(f,none), vertex(e,none), vertex(d,none), edge(1,in), edge(2,in), edge(3,in), edge(4,in), edge(5,in), edge(6,in), edge(7,in)}
{vertex(b,none), vertex(a,none), vertex(c,none), vertex(f,none), vertex(e,none), vertex(d,none), edge(1,in), edge(2,in), edge(3,in), edge(4,in), edge(5,in), edge(6,in), edge(7,in)}
{vertex(b,none), vertex(a,none), vertex(c,none), vertex(f,none), vertex(e,none), vertex(d,none), edge(1,in), edge(2,in), edge(3,in), edge(4,in), edge(5,in), edge(6,in), edge(7,in)}
{vertex(b,none), vertex(a,none), vertex(c,none), vertex(f,none), vertex(e,none), vertex(d,none), edge(1,in), edge(2,in), edge(3,in), edge(4,in), edge(5,in), edge(6,in), edge(7,in)}
{vertex(b,none), vertex(a,none), vertex(c,none), vertex(f,none), vertex(e,none), vertex(d,none), edge(1,in), edge(2,in), edge(3,in), edge(4,in), edge(5,in), edge(6,in), edge(7,in)}
{vertex(b,none), vertex(a,none), vertex(c,none), vertex(f,none), vertex(e,none), vertex(d,none), edge(1,in), edge(2,in), edge(3,in), edge(4,in), edge(5,in), edge(6,in), edge(7,in)}
{vertex(b,none), vertex(a,none), vertex(c,none), vertex(f,none), vertex(e,none), vertex(d,none), edge(1,in), edge(2,in), edge(3,in), edge(4,in), edge(5,in), edge(6,in), edge(7,in)}
