global,rankdir=TB ranksep=0.25 node[fontname=Helvetica], 
none,none,
subgraph,style=filled color="#F0F0F0",
plus,node[shape=circle style=filled fillcolor="#DDFFDD" label="+"],
cross,node[shape=circle style=filled fillcolor="#FFBBBB" label="x"],
p,node[shape=square style=filled fillcolor="#FFBBBB" label="p"],
q,node[shape=square style=filled fillcolor="#FFBBBB" label="q"],
r,node[shape=square style=filled fillcolor="#FFBBBB" label="r"],
"g1",edge[color=black arrowhead=normal style=solid constraint=true penwidth=1],
"g2",edge[color=black arrowhead=none style=invisible constraint=false penwidth=2],
"h",edge[color="#2222BB" arrowhead=none style=invisible penwidth=5 constraint=false],
"htrivial",edge[color="#2222BB" arrowhead=none style=invisible penwidth=1 constraint=false],
split,edge[style=invisible arrowhead=none constraint=true],
