global,rankdir=TB ranksep=0.1 nodesep=0.3 node[fontname=Helvetica], 
none,none,
subgraph,style=filled color="#F0F0F0",
"v1",$1node[shape=circle style=filled fillcolor="#9999FF"],
"v2",$2node[shape=circle style=filled fillcolor="#FFFF99"],
"g1",edge[color=black arrowhead=none style=solid constraint=true penwidth=3],
"g2",edge[color=black arrowhead=none style=solid constraint=true penwidth=3],
"h",edge[color=red arrowhead=none style=dashed penwidth=2 constraint=false],
split,edge[style=invisible arrowhead=none constraint=true],
