<?xml version="1.0" encoding="UTF-8" standalone="no"?>
<!DOCTYPE svg PUBLIC "-//W3C//DTD SVG 1.1//EN"
 "http://www.w3.org/Graphics/SVG/1.1/DTD/svg11.dtd">
<!-- Generated by graphviz version 2.28.0 (20111028.1807)
 -->
<!-- Title: _anonymous_281 Pages: 1 -->
<svg width="1288pt" height="294pt"
 viewBox="0.00 0.00 1288.00 294.00" xmlns="http://www.w3.org/2000/svg" xmlns:xlink="http://www.w3.org/1999/xlink">
<g id="graph1" class="graph" transform="scale(1 1) rotate(0) translate(4 290)">
<title>_anonymous_281</title>
<polygon fill="white" stroke="white" points="-4,5 -4,-290 1285,-290 1285,5 -4,5"/>
<g id="graph2" class="cluster"><title>cluster01</title>
<polygon fill="#f0f0f0" stroke="#f0f0f0" points="8,-8 8,-278 80,-278 80,-8 8,-8"/>
</g>
<g id="graph3" class="cluster"><title>cluster02</title>
<polygon fill="#f0f0f0" stroke="#f0f0f0" points="88,-152 88,-278 196,-278 196,-152 88,-152"/>
</g>
<g id="graph5" class="cluster"><title>cluster11</title>
<polygon fill="#f0f0f0" stroke="#f0f0f0" points="236,-8 236,-278 308,-278 308,-8 236,-8"/>
</g>
<g id="graph6" class="cluster"><title>cluster12</title>
<polygon fill="#f0f0f0" stroke="#f0f0f0" points="316,-152 316,-278 424,-278 424,-152 316,-152"/>
</g>
<g id="graph8" class="cluster"><title>cluster21</title>
<polygon fill="#f0f0f0" stroke="#f0f0f0" points="432,-8 432,-278 504,-278 504,-8 432,-8"/>
</g>
<g id="graph9" class="cluster"><title>cluster22</title>
<polygon fill="#f0f0f0" stroke="#f0f0f0" points="512,-152 512,-278 620,-278 620,-152 512,-152"/>
</g>
<g id="graph11" class="cluster"><title>cluster31</title>
<polygon fill="#f0f0f0" stroke="#f0f0f0" points="628,-8 628,-278 700,-278 700,-8 628,-8"/>
</g>
<g id="graph12" class="cluster"><title>cluster32</title>
<polygon fill="#f0f0f0" stroke="#f0f0f0" points="708,-152 708,-278 816,-278 816,-152 708,-152"/>
</g>
<g id="graph14" class="cluster"><title>cluster41</title>
<polygon fill="#f0f0f0" stroke="#f0f0f0" points="856,-8 856,-278 928,-278 928,-8 856,-8"/>
</g>
<g id="graph15" class="cluster"><title>cluster42</title>
<polygon fill="#f0f0f0" stroke="#f0f0f0" points="936,-152 936,-278 1044,-278 1044,-152 936,-152"/>
</g>
<g id="graph17" class="cluster"><title>cluster51</title>
<polygon fill="#f0f0f0" stroke="#f0f0f0" points="1084,-8 1084,-278 1156,-278 1156,-8 1084,-8"/>
</g>
<g id="graph18" class="cluster"><title>cluster52</title>
<polygon fill="#f0f0f0" stroke="#f0f0f0" points="1164,-152 1164,-278 1272,-278 1272,-152 1164,-152"/>
</g>
<!-- a0 -->
<g id="node2" class="node"><title>a0</title>
<ellipse fill="#ffffff" stroke="black" cx="44" cy="-252" rx="18" ry="18"/>
<text text-anchor="middle" x="44" y="-246.4" font-family="Helvetica,sans-Serif" font-size="14.00">a</text>
</g>
<!-- b0 -->
<g id="node3" class="node"><title>b0</title>
<ellipse fill="#ffffff" stroke="black" cx="34" cy="-179" rx="18" ry="18"/>
<text text-anchor="middle" x="34" y="-173.4" font-family="Helvetica,sans-Serif" font-size="14.00">b</text>
</g>
<!-- a0&#45;&gt;b0 -->
<g id="edge20" class="edge"><title>a0&#45;&gt;b0</title>
<path fill="none" stroke="black" stroke-width="3" d="M41.5793,-233.813C40.007,-222.65 37.9662,-208.16 36.3984,-197.029"/>
</g>
<!-- c0 -->
<g id="node4" class="node"><title>c0</title>
<ellipse fill="#ffffff" stroke="black" cx="54" cy="-106" rx="18" ry="18"/>
<text text-anchor="middle" x="54" y="-100.4" font-family="Helvetica,sans-Serif" font-size="14.00">c</text>
</g>
<!-- a0&#45;&gt;c0 -->
<g id="edge22" class="edge"><title>a0&#45;&gt;c0</title>
<path fill="none" stroke="black" stroke-width="3" d="M50.5391,-235.078C54.4346,-224.715 58.9985,-210.793 61,-198 65.0167,-172.326 61.0142,-142.2 57.6187,-123.863"/>
</g>
<!-- z0 -->
<g id="node9" class="node"><title>z0</title>
<ellipse fill="#9999ff" stroke="black" cx="170" cy="-179" rx="18" ry="18"/>
<text text-anchor="middle" x="170" y="-173.4" font-family="Helvetica,sans-Serif" font-size="14.00">B</text>
</g>
<!-- a0&#45;&gt;z0 -->
<g id="edge36" class="edge"><title>a0&#45;&gt;z0</title>
<path fill="none" stroke="red" stroke-width="2" stroke-dasharray="5,2" d="M59.8186,-242.915C79.3626,-232.819 113.521,-214.822 142,-198 143.505,-197.111 145.046,-196.181 146.592,-195.231"/>
<polygon fill="red" stroke="red" points="148.713,-198.032 155.308,-189.74 144.982,-192.109 148.713,-198.032"/>
</g>
<!-- b0&#45;&gt;c0 -->
<g id="edge24" class="edge"><title>b0&#45;&gt;c0</title>
<path fill="none" stroke="black" stroke-width="3" d="M38.6387,-161.533C41.8236,-150.226 46.0386,-135.263 49.2476,-123.871"/>
</g>
<!-- d0 -->
<g id="node5" class="node"><title>d0</title>
<ellipse fill="#ffffff" stroke="black" cx="44" cy="-34" rx="18" ry="18"/>
<text text-anchor="middle" x="44" y="-28.4" font-family="Helvetica,sans-Serif" font-size="14.00">d</text>
</g>
<!-- b0&#45;&gt;d0 -->
<g id="edge26" class="edge"><title>b0&#45;&gt;d0</title>
<path fill="none" stroke="black" stroke-width="3" d="M30.3983,-161.323C27.0173,-143.188 23.0271,-113.393 27,-88 29.0015,-75.207 33.5654,-61.2854 37.4609,-50.9218"/>
</g>
<!-- y0 -->
<g id="node8" class="node"><title>y0</title>
<ellipse fill="#99ff99" stroke="black" cx="115" cy="-179" rx="18.3214" ry="18.5961"/>
<text text-anchor="middle" x="115" y="-173.4" font-family="Helvetica,sans-Serif" font-size="14.00">G</text>
</g>
<!-- b0&#45;&gt;y0 -->
<g id="edge38" class="edge"><title>b0&#45;&gt;y0</title>
<path fill="none" stroke="red" stroke-width="2" stroke-dasharray="5,2" d="M52.0352,-179C63.4491,-179 74.863,-179 86.2769,-179"/>
<polygon fill="red" stroke="red" points="86.3073,-182.5 96.3073,-179 86.3073,-175.5 86.3073,-182.5"/>
</g>
<!-- c0&#45;&gt;d0 -->
<g id="edge28" class="edge"><title>c0&#45;&gt;d0</title>
<path fill="none" stroke="black" stroke-width="3" d="M51.5793,-88.055C50.0302,-77.2111 48.0261,-63.183 46.4679,-52.2753"/>
</g>
<!-- x0 -->
<g id="node7" class="node"><title>x0</title>
<ellipse fill="#ff9999" stroke="black" cx="142" cy="-252" rx="18.0157" ry="18.0209"/>
<a xlink:href="/svg/index.html"> <text x="10" y="20">/svg/index.html</text></a>
<text text-anchor="middle" x="142" y="-246.4" font-family="Helvetica,sans-Serif" font-size="14.00">RX</text>
</g>
<!-- c0&#45;&gt;x0 -->
<g id="edge40" class="edge"><title>c0&#45;&gt;x0</title>
<path fill="none" stroke="red" stroke-width="2" stroke-dasharray="5,2" d="M72.2787,-106.484C103.826,-106.712 167.902,-112.339 197,-152 209.094,-168.484 204.998,-179.185 197,-198 190.488,-213.319 177.137,-226.359 165.221,-235.67"/>
<polygon fill="red" stroke="red" points="162.903,-233.03 156.916,-241.771 167.047,-238.672 162.903,-233.03"/>
</g>
<!-- d0&#45;&gt;z0 -->
<g id="edge42" class="edge"><title>d0&#45;&gt;z0</title>
<path fill="none" stroke="red" stroke-width="2" stroke-dasharray="5,2" d="M55.5998,-48.1649C77.5186,-73.0409 125.179,-127.132 151.541,-157.05"/>
<polygon fill="red" stroke="red" points="149.135,-159.614 158.372,-164.803 154.387,-154.986 149.135,-159.614"/>
</g>
<!-- x0&#45;&gt;y0 -->
<g id="edge30" class="edge"><title>x0&#45;&gt;y0</title>
<path fill="none" stroke="black" stroke-width="3" d="M135.873,-234.889C131.517,-223.433 125.683,-208.091 121.29,-196.54"/>
</g>
<!-- x0&#45;&gt;z0 -->
<g id="edge32" class="edge"><title>x0&#45;&gt;z0</title>
<path fill="none" stroke="black" stroke-width="3" d="M148.354,-234.889C152.936,-223.269 159.095,-207.652 163.672,-196.047"/>
</g>
<!-- y0&#45;&gt;z0 -->
<g id="edge34" class="edge"><title>y0&#45;&gt;z0</title>
<path fill="none" stroke="black" stroke-width="3" d="M133.477,-179C139.564,-179 145.651,-179 151.738,-179"/>
</g>
<!-- a1 -->
<g id="node12" class="node"><title>a1</title>
<ellipse fill="#ffffff" stroke="black" cx="272" cy="-252" rx="18" ry="18"/>
<text text-anchor="middle" x="272" y="-246.4" font-family="Helvetica,sans-Serif" font-size="14.00">a</text>
</g>
<!-- b1 -->
<g id="node13" class="node"><title>b1</title>
<ellipse fill="#ffffff" stroke="black" cx="262" cy="-179" rx="18" ry="18"/>
<text text-anchor="middle" x="262" y="-173.4" font-family="Helvetica,sans-Serif" font-size="14.00">b</text>
</g>
<!-- a1&#45;&gt;b1 -->
<g id="edge44" class="edge"><title>a1&#45;&gt;b1</title>
<path fill="none" stroke="black" stroke-width="3" d="M269.579,-233.813C268.007,-222.65 265.966,-208.16 264.398,-197.029"/>
</g>
<!-- c1 -->
<g id="node14" class="node"><title>c1</title>
<ellipse fill="#ffffff" stroke="black" cx="282" cy="-106" rx="18" ry="18"/>
<text text-anchor="middle" x="282" y="-100.4" font-family="Helvetica,sans-Serif" font-size="14.00">c</text>
</g>
<!-- a1&#45;&gt;c1 -->
<g id="edge46" class="edge"><title>a1&#45;&gt;c1</title>
<path fill="none" stroke="black" stroke-width="3" d="M278.539,-235.078C282.435,-224.715 286.999,-210.793 289,-198 293.017,-172.326 289.014,-142.2 285.619,-123.863"/>
</g>
<!-- z1 -->
<g id="node19" class="node"><title>z1</title>
<ellipse fill="#9999ff" stroke="black" cx="398" cy="-179" rx="18" ry="18"/>
<text text-anchor="middle" x="398" y="-173.4" font-family="Helvetica,sans-Serif" font-size="14.00">B</text>
</g>
<!-- a1&#45;&gt;z1 -->
<g id="edge60" class="edge"><title>a1&#45;&gt;z1</title>
<path fill="none" stroke="red" stroke-width="2" stroke-dasharray="5,2" d="M287.819,-242.915C307.363,-232.819 341.521,-214.822 370,-198 371.505,-197.111 373.046,-196.181 374.592,-195.231"/>
<polygon fill="red" stroke="red" points="376.713,-198.032 383.308,-189.74 372.982,-192.109 376.713,-198.032"/>
</g>
<!-- b1&#45;&gt;c1 -->
<g id="edge48" class="edge"><title>b1&#45;&gt;c1</title>
<path fill="none" stroke="black" stroke-width="3" d="M266.639,-161.533C269.824,-150.226 274.039,-135.263 277.248,-123.871"/>
</g>
<!-- d1 -->
<g id="node15" class="node"><title>d1</title>
<ellipse fill="#ffffff" stroke="black" cx="272" cy="-34" rx="18" ry="18"/>
<text text-anchor="middle" x="272" y="-28.4" font-family="Helvetica,sans-Serif" font-size="14.00">d</text>
</g>
<!-- b1&#45;&gt;d1 -->
<g id="edge50" class="edge"><title>b1&#45;&gt;d1</title>
<path fill="none" stroke="black" stroke-width="3" d="M258.398,-161.323C255.017,-143.188 251.027,-113.393 255,-88 257.001,-75.207 261.565,-61.2854 265.461,-50.9218"/>
</g>
<!-- x1 -->
<g id="node17" class="node"><title>x1</title>
<ellipse fill="#ff9999" stroke="black" cx="370" cy="-252" rx="18.0157" ry="18.0209"/>
<text text-anchor="middle" x="370" y="-246.4" font-family="Helvetica,sans-Serif" font-size="14.00">R</text>
</g>
<!-- b1&#45;&gt;x1 -->
<g id="edge62" class="edge"><title>b1&#45;&gt;x1</title>
<path fill="none" stroke="red" stroke-width="2" stroke-dasharray="5,2" d="M276.889,-189.788C294.885,-201.619 325.381,-221.667 346.547,-235.582"/>
<polygon fill="red" stroke="red" points="344.704,-238.559 354.983,-241.128 348.55,-232.71 344.704,-238.559"/>
</g>
<!-- c1&#45;&gt;d1 -->
<g id="edge52" class="edge"><title>c1&#45;&gt;d1</title>
<path fill="none" stroke="black" stroke-width="3" d="M279.579,-88.055C278.03,-77.2111 276.026,-63.183 274.468,-52.2753"/>
</g>
<!-- y1 -->
<g id="node18" class="node"><title>y1</title>
<ellipse fill="#99ff99" stroke="black" cx="343" cy="-179" rx="18.3214" ry="18.5961"/>
<text text-anchor="middle" x="343" y="-173.4" font-family="Helvetica,sans-Serif" font-size="14.00">G</text>
</g>
<!-- c1&#45;&gt;y1 -->
<g id="edge64" class="edge"><title>c1&#45;&gt;y1</title>
<path fill="none" stroke="red" stroke-width="2" stroke-dasharray="5,2" d="M293.313,-120.167C302.083,-130.375 314.416,-144.73 324.601,-156.585"/>
<polygon fill="red" stroke="red" points="322.067,-159.006 331.239,-164.31 327.377,-154.445 322.067,-159.006"/>
</g>
<!-- d1&#45;&gt;z1 -->
<g id="edge66" class="edge"><title>d1&#45;&gt;z1</title>
<path fill="none" stroke="red" stroke-width="2" stroke-dasharray="5,2" d="M283.6,-48.1649C305.519,-73.0409 353.179,-127.132 379.541,-157.05"/>
<polygon fill="red" stroke="red" points="377.135,-159.614 386.372,-164.803 382.387,-154.986 377.135,-159.614"/>
</g>
<!-- x1&#45;&gt;y1 -->
<g id="edge54" class="edge"><title>x1&#45;&gt;y1</title>
<path fill="none" stroke="black" stroke-width="3" d="M363.873,-234.889C359.517,-223.433 353.683,-208.091 349.29,-196.54"/>
</g>
<!-- x1&#45;&gt;z1 -->
<g id="edge56" class="edge"><title>x1&#45;&gt;z1</title>
<path fill="none" stroke="black" stroke-width="3" d="M376.354,-234.889C380.936,-223.269 387.095,-207.652 391.672,-196.047"/>
</g>
<!-- y1&#45;&gt;z1 -->
<g id="edge58" class="edge"><title>y1&#45;&gt;z1</title>
<path fill="none" stroke="black" stroke-width="3" d="M361.477,-179C367.564,-179 373.651,-179 379.738,-179"/>
</g>
<!-- a2 -->
<g id="node22" class="node"><title>a2</title>
<ellipse fill="#ffffff" stroke="black" cx="468" cy="-252" rx="18" ry="18"/>
<text text-anchor="middle" x="468" y="-246.4" font-family="Helvetica,sans-Serif" font-size="14.00">a</text>
</g>
<!-- b2 -->
<g id="node23" class="node"><title>b2</title>
<ellipse fill="#ffffff" stroke="black" cx="458" cy="-179" rx="18" ry="18"/>
<text text-anchor="middle" x="458" y="-173.4" font-family="Helvetica,sans-Serif" font-size="14.00">b</text>
</g>
<!-- a2&#45;&gt;b2 -->
<g id="edge68" class="edge"><title>a2&#45;&gt;b2</title>
<path fill="none" stroke="black" stroke-width="3" d="M465.579,-233.813C464.007,-222.65 461.966,-208.16 460.398,-197.029"/>
</g>
<!-- c2 -->
<g id="node24" class="node"><title>c2</title>
<ellipse fill="#ffffff" stroke="black" cx="478" cy="-106" rx="18" ry="18"/>
<text text-anchor="middle" x="478" y="-100.4" font-family="Helvetica,sans-Serif" font-size="14.00">c</text>
</g>
<!-- a2&#45;&gt;c2 -->
<g id="edge70" class="edge"><title>a2&#45;&gt;c2</title>
<path fill="none" stroke="black" stroke-width="3" d="M474.539,-235.078C478.435,-224.715 482.999,-210.793 485,-198 489.017,-172.326 485.014,-142.2 481.619,-123.863"/>
</g>
<!-- y2 -->
<g id="node28" class="node"><title>y2</title>
<ellipse fill="#99ff99" stroke="black" cx="539" cy="-179" rx="18.3214" ry="18.5961"/>
<text text-anchor="middle" x="539" y="-173.4" font-family="Helvetica,sans-Serif" font-size="14.00">G</text>
</g>
<!-- a2&#45;&gt;y2 -->
<g id="edge84" class="edge"><title>a2&#45;&gt;y2</title>
<path fill="none" stroke="red" stroke-width="2" stroke-dasharray="5,2" d="M480.367,-238.633C491.027,-227.973 506.617,-212.383 519.042,-199.958"/>
<polygon fill="red" stroke="red" points="521.7,-202.25 526.296,-192.704 516.75,-197.3 521.7,-202.25"/>
</g>
<!-- b2&#45;&gt;c2 -->
<g id="edge72" class="edge"><title>b2&#45;&gt;c2</title>
<path fill="none" stroke="black" stroke-width="3" d="M462.639,-161.533C465.824,-150.226 470.039,-135.263 473.248,-123.871"/>
</g>
<!-- d2 -->
<g id="node25" class="node"><title>d2</title>
<ellipse fill="#ffffff" stroke="black" cx="468" cy="-34" rx="18" ry="18"/>
<text text-anchor="middle" x="468" y="-28.4" font-family="Helvetica,sans-Serif" font-size="14.00">d</text>
</g>
<!-- b2&#45;&gt;d2 -->
<g id="edge74" class="edge"><title>b2&#45;&gt;d2</title>
<path fill="none" stroke="black" stroke-width="3" d="M454.398,-161.323C451.017,-143.188 447.027,-113.393 451,-88 453.001,-75.207 457.565,-61.2854 461.461,-50.9218"/>
</g>
<!-- x2 -->
<g id="node27" class="node"><title>x2</title>
<ellipse fill="#ff9999" stroke="black" cx="566" cy="-252" rx="18.0157" ry="18.0209"/>
<text text-anchor="middle" x="566" y="-246.4" font-family="Helvetica,sans-Serif" font-size="14.00">R</text>
</g>
<!-- b2&#45;&gt;x2 -->
<g id="edge86" class="edge"><title>b2&#45;&gt;x2</title>
<path fill="none" stroke="red" stroke-width="2" stroke-dasharray="5,2" d="M472.889,-189.788C490.885,-201.619 521.381,-221.667 542.547,-235.582"/>
<polygon fill="red" stroke="red" points="540.704,-238.559 550.983,-241.128 544.55,-232.71 540.704,-238.559"/>
</g>
<!-- c2&#45;&gt;d2 -->
<g id="edge76" class="edge"><title>c2&#45;&gt;d2</title>
<path fill="none" stroke="black" stroke-width="3" d="M475.579,-88.055C474.03,-77.2111 472.026,-63.183 470.468,-52.2753"/>
</g>
<!-- z2 -->
<g id="node29" class="node"><title>z2</title>
<ellipse fill="#9999ff" stroke="black" cx="594" cy="-179" rx="18" ry="18"/>
<text text-anchor="middle" x="594" y="-173.4" font-family="Helvetica,sans-Serif" font-size="14.00">B</text>
</g>
<!-- c2&#45;&gt;z2 -->
<g id="edge88" class="edge"><title>c2&#45;&gt;z2</title>
<path fill="none" stroke="red" stroke-width="2" stroke-dasharray="5,2" d="M494.328,-113.72C512.589,-121.596 542.661,-135.67 566,-152 568.772,-153.94 571.551,-156.138 574.224,-158.416"/>
<polygon fill="red" stroke="red" points="572.055,-161.174 581.812,-165.305 576.76,-155.992 572.055,-161.174"/>
</g>
<!-- d2&#45;&gt;y2 -->
<g id="edge90" class="edge"><title>d2&#45;&gt;y2</title>
<path fill="none" stroke="red" stroke-width="2" stroke-dasharray="5,2" d="M479.055,-48.7846C486.995,-59.1399 497.566,-73.9052 505,-88 515.732,-108.349 524.758,-132.854 530.807,-151.152"/>
<polygon fill="red" stroke="red" points="527.539,-152.424 533.934,-160.871 534.203,-150.28 527.539,-152.424"/>
</g>
<!-- x2&#45;&gt;y2 -->
<g id="edge78" class="edge"><title>x2&#45;&gt;y2</title>
<path fill="none" stroke="black" stroke-width="3" d="M559.873,-234.889C555.517,-223.433 549.683,-208.091 545.29,-196.54"/>
</g>
<!-- x2&#45;&gt;z2 -->
<g id="edge80" class="edge"><title>x2&#45;&gt;z2</title>
<path fill="none" stroke="black" stroke-width="3" d="M572.354,-234.889C576.936,-223.269 583.095,-207.652 587.672,-196.047"/>
</g>
<!-- y2&#45;&gt;z2 -->
<g id="edge82" class="edge"><title>y2&#45;&gt;z2</title>
<path fill="none" stroke="black" stroke-width="3" d="M557.477,-179C563.564,-179 569.651,-179 575.738,-179"/>
</g>
<!-- a3 -->
<g id="node32" class="node"><title>a3</title>
<ellipse fill="#ffffff" stroke="black" cx="664" cy="-252" rx="18" ry="18"/>
<text text-anchor="middle" x="664" y="-246.4" font-family="Helvetica,sans-Serif" font-size="14.00">a</text>
</g>
<!-- b3 -->
<g id="node33" class="node"><title>b3</title>
<ellipse fill="#ffffff" stroke="black" cx="654" cy="-179" rx="18" ry="18"/>
<text text-anchor="middle" x="654" y="-173.4" font-family="Helvetica,sans-Serif" font-size="14.00">b</text>
</g>
<!-- a3&#45;&gt;b3 -->
<g id="edge92" class="edge"><title>a3&#45;&gt;b3</title>
<path fill="none" stroke="black" stroke-width="3" d="M661.579,-233.813C660.007,-222.65 657.966,-208.16 656.398,-197.029"/>
</g>
<!-- c3 -->
<g id="node34" class="node"><title>c3</title>
<ellipse fill="#ffffff" stroke="black" cx="674" cy="-106" rx="18" ry="18"/>
<text text-anchor="middle" x="674" y="-100.4" font-family="Helvetica,sans-Serif" font-size="14.00">c</text>
</g>
<!-- a3&#45;&gt;c3 -->
<g id="edge94" class="edge"><title>a3&#45;&gt;c3</title>
<path fill="none" stroke="black" stroke-width="3" d="M670.539,-235.078C674.435,-224.715 678.999,-210.793 681,-198 685.017,-172.326 681.014,-142.2 677.619,-123.863"/>
</g>
<!-- y3 -->
<g id="node38" class="node"><title>y3</title>
<ellipse fill="#99ff99" stroke="black" cx="735" cy="-179" rx="18.3214" ry="18.5961"/>
<text text-anchor="middle" x="735" y="-173.4" font-family="Helvetica,sans-Serif" font-size="14.00">G</text>
</g>
<!-- a3&#45;&gt;y3 -->
<g id="edge108" class="edge"><title>a3&#45;&gt;y3</title>
<path fill="none" stroke="red" stroke-width="2" stroke-dasharray="5,2" d="M676.367,-238.633C687.027,-227.973 702.617,-212.383 715.042,-199.958"/>
<polygon fill="red" stroke="red" points="717.7,-202.25 722.296,-192.704 712.75,-197.3 717.7,-202.25"/>
</g>
<!-- b3&#45;&gt;c3 -->
<g id="edge96" class="edge"><title>b3&#45;&gt;c3</title>
<path fill="none" stroke="black" stroke-width="3" d="M658.639,-161.533C661.824,-150.226 666.039,-135.263 669.248,-123.871"/>
</g>
<!-- d3 -->
<g id="node35" class="node"><title>d3</title>
<ellipse fill="#ffffff" stroke="black" cx="664" cy="-34" rx="18" ry="18"/>
<text text-anchor="middle" x="664" y="-28.4" font-family="Helvetica,sans-Serif" font-size="14.00">d</text>
</g>
<!-- b3&#45;&gt;d3 -->
<g id="edge98" class="edge"><title>b3&#45;&gt;d3</title>
<path fill="none" stroke="black" stroke-width="3" d="M650.398,-161.323C647.017,-143.188 643.027,-113.393 647,-88 649.001,-75.207 653.565,-61.2854 657.461,-50.9218"/>
</g>
<!-- z3 -->
<g id="node39" class="node"><title>z3</title>
<ellipse fill="#9999ff" stroke="black" cx="790" cy="-179" rx="18" ry="18"/>
<text text-anchor="middle" x="790" y="-173.4" font-family="Helvetica,sans-Serif" font-size="14.00">B</text>
</g>
<!-- b3&#45;&gt;z3 -->
<g id="edge110" class="edge"><title>b3&#45;&gt;z3</title>
<path fill="none" stroke="red" stroke-width="2" stroke-dasharray="5,2" d="M667.922,-190.921C679.231,-199.772 696.035,-211.121 713,-216 730.085,-220.914 736.575,-222.803 753,-216 760.386,-212.941 767.066,-207.613 772.653,-201.937"/>
<polygon fill="red" stroke="red" points="775.534,-203.964 779.557,-194.163 770.3,-199.316 775.534,-203.964"/>
</g>
<!-- c3&#45;&gt;d3 -->
<g id="edge100" class="edge"><title>c3&#45;&gt;d3</title>
<path fill="none" stroke="black" stroke-width="3" d="M671.579,-88.055C670.03,-77.2111 668.026,-63.183 666.468,-52.2753"/>
</g>
<!-- x3 -->
<g id="node37" class="node"><title>x3</title>
<ellipse fill="#ff9999" stroke="black" cx="762" cy="-252" rx="18.0157" ry="18.0209"/>
<text text-anchor="middle" x="762" y="-246.4" font-family="Helvetica,sans-Serif" font-size="14.00">R</text>
</g>
<!-- c3&#45;&gt;x3 -->
<g id="edge112" class="edge"><title>c3&#45;&gt;x3</title>
<path fill="none" stroke="red" stroke-width="2" stroke-dasharray="5,2" d="M692.279,-106.484C723.826,-106.712 787.902,-112.339 817,-152 829.094,-168.484 824.998,-179.185 817,-198 810.488,-213.319 797.137,-226.359 785.221,-235.67"/>
<polygon fill="red" stroke="red" points="782.903,-233.03 776.916,-241.771 787.047,-238.672 782.903,-233.03"/>
</g>
<!-- d3&#45;&gt;y3 -->
<g id="edge114" class="edge"><title>d3&#45;&gt;y3</title>
<path fill="none" stroke="red" stroke-width="2" stroke-dasharray="5,2" d="M675.055,-48.7846C682.995,-59.1399 693.566,-73.9052 701,-88 711.732,-108.349 720.758,-132.854 726.807,-151.152"/>
<polygon fill="red" stroke="red" points="723.539,-152.424 729.934,-160.871 730.203,-150.28 723.539,-152.424"/>
</g>
<!-- x3&#45;&gt;y3 -->
<g id="edge102" class="edge"><title>x3&#45;&gt;y3</title>
<path fill="none" stroke="black" stroke-width="3" d="M755.873,-234.889C751.517,-223.433 745.683,-208.091 741.29,-196.54"/>
</g>
<!-- x3&#45;&gt;z3 -->
<g id="edge104" class="edge"><title>x3&#45;&gt;z3</title>
<path fill="none" stroke="black" stroke-width="3" d="M768.354,-234.889C772.936,-223.269 779.095,-207.652 783.672,-196.047"/>
</g>
<!-- y3&#45;&gt;z3 -->
<g id="edge106" class="edge"><title>y3&#45;&gt;z3</title>
<path fill="none" stroke="black" stroke-width="3" d="M753.477,-179C759.564,-179 765.651,-179 771.738,-179"/>
</g>
<!-- a4 -->
<g id="node42" class="node"><title>a4</title>
<ellipse fill="#ffffff" stroke="black" cx="892" cy="-252" rx="18" ry="18"/>
<text text-anchor="middle" x="892" y="-246.4" font-family="Helvetica,sans-Serif" font-size="14.00">a</text>
</g>
<!-- b4 -->
<g id="node43" class="node"><title>b4</title>
<ellipse fill="#ffffff" stroke="black" cx="882" cy="-179" rx="18" ry="18"/>
<text text-anchor="middle" x="882" y="-173.4" font-family="Helvetica,sans-Serif" font-size="14.00">b</text>
</g>
<!-- a4&#45;&gt;b4 -->
<g id="edge116" class="edge"><title>a4&#45;&gt;b4</title>
<path fill="none" stroke="black" stroke-width="3" d="M889.579,-233.813C888.007,-222.65 885.966,-208.16 884.398,-197.029"/>
</g>
<!-- c4 -->
<g id="node44" class="node"><title>c4</title>
<ellipse fill="#ffffff" stroke="black" cx="902" cy="-106" rx="18" ry="18"/>
<text text-anchor="middle" x="902" y="-100.4" font-family="Helvetica,sans-Serif" font-size="14.00">c</text>
</g>
<!-- a4&#45;&gt;c4 -->
<g id="edge118" class="edge"><title>a4&#45;&gt;c4</title>
<path fill="none" stroke="black" stroke-width="3" d="M898.539,-235.078C902.435,-224.715 906.999,-210.793 909,-198 913.017,-172.326 909.014,-142.2 905.619,-123.863"/>
</g>
<!-- x4 -->
<g id="node47" class="node"><title>x4</title>
<ellipse fill="#ff9999" stroke="black" cx="990" cy="-252" rx="18.0157" ry="18.0209"/>
<text text-anchor="middle" x="990" y="-246.4" font-family="Helvetica,sans-Serif" font-size="14.00">R</text>
</g>
<!-- a4&#45;&gt;x4 -->
<g id="edge132" class="edge"><title>a4&#45;&gt;x4</title>
<path fill="none" stroke="red" stroke-width="2" stroke-dasharray="5,2" d="M910.375,-252C927.535,-252 944.696,-252 961.856,-252"/>
<polygon fill="red" stroke="red" points="961.96,-255.5 971.96,-252 961.96,-248.5 961.96,-255.5"/>
</g>
<!-- b4&#45;&gt;c4 -->
<g id="edge120" class="edge"><title>b4&#45;&gt;c4</title>
<path fill="none" stroke="black" stroke-width="3" d="M886.639,-161.533C889.824,-150.226 894.039,-135.263 897.248,-123.871"/>
</g>
<!-- d4 -->
<g id="node45" class="node"><title>d4</title>
<ellipse fill="#ffffff" stroke="black" cx="892" cy="-34" rx="18" ry="18"/>
<text text-anchor="middle" x="892" y="-28.4" font-family="Helvetica,sans-Serif" font-size="14.00">d</text>
</g>
<!-- b4&#45;&gt;d4 -->
<g id="edge122" class="edge"><title>b4&#45;&gt;d4</title>
<path fill="none" stroke="black" stroke-width="3" d="M878.398,-161.323C875.017,-143.188 871.027,-113.393 875,-88 877.001,-75.207 881.565,-61.2854 885.461,-50.9218"/>
</g>
<!-- y4 -->
<g id="node48" class="node"><title>y4</title>
<ellipse fill="#99ff99" stroke="black" cx="963" cy="-179" rx="18.3214" ry="18.5961"/>
<text text-anchor="middle" x="963" y="-173.4" font-family="Helvetica,sans-Serif" font-size="14.00">G</text>
</g>
<!-- b4&#45;&gt;y4 -->
<g id="edge134" class="edge"><title>b4&#45;&gt;y4</title>
<path fill="none" stroke="red" stroke-width="2" stroke-dasharray="5,2" d="M900.035,-179C911.449,-179 922.863,-179 934.277,-179"/>
<polygon fill="red" stroke="red" points="934.307,-182.5 944.307,-179 934.307,-175.5 934.307,-182.5"/>
</g>
<!-- c4&#45;&gt;d4 -->
<g id="edge124" class="edge"><title>c4&#45;&gt;d4</title>
<path fill="none" stroke="black" stroke-width="3" d="M899.579,-88.055C898.03,-77.2111 896.026,-63.183 894.468,-52.2753"/>
</g>
<!-- z4 -->
<g id="node49" class="node"><title>z4</title>
<ellipse fill="#9999ff" stroke="black" cx="1018" cy="-179" rx="18" ry="18"/>
<text text-anchor="middle" x="1018" y="-173.4" font-family="Helvetica,sans-Serif" font-size="14.00">B</text>
</g>
<!-- c4&#45;&gt;z4 -->
<g id="edge136" class="edge"><title>c4&#45;&gt;z4</title>
<path fill="none" stroke="red" stroke-width="2" stroke-dasharray="5,2" d="M918.328,-113.72C936.589,-121.596 966.661,-135.67 990,-152 992.772,-153.94 995.551,-156.138 998.224,-158.416"/>
<polygon fill="red" stroke="red" points="996.055,-161.174 1005.81,-165.305 1000.76,-155.992 996.055,-161.174"/>
</g>
<!-- d4&#45;&gt;x4 -->
<g id="edge138" class="edge"><title>d4&#45;&gt;x4</title>
<path fill="none" stroke="red" stroke-width="2" stroke-dasharray="5,2" d="M908.489,-41.5854C941.703,-55.8742 1015.96,-93.2426 1045,-152 1054.06,-170.329 1053,-179.185 1045,-198 1038.49,-213.319 1025.14,-226.359 1013.22,-235.67"/>
<polygon fill="red" stroke="red" points="1010.9,-233.03 1004.92,-241.771 1015.05,-238.672 1010.9,-233.03"/>
</g>
<!-- x4&#45;&gt;y4 -->
<g id="edge126" class="edge"><title>x4&#45;&gt;y4</title>
<path fill="none" stroke="black" stroke-width="3" d="M983.873,-234.889C979.517,-223.433 973.683,-208.091 969.29,-196.54"/>
</g>
<!-- x4&#45;&gt;z4 -->
<g id="edge128" class="edge"><title>x4&#45;&gt;z4</title>
<path fill="none" stroke="black" stroke-width="3" d="M996.354,-234.889C1000.94,-223.269 1007.09,-207.652 1011.67,-196.047"/>
</g>
<!-- y4&#45;&gt;z4 -->
<g id="edge130" class="edge"><title>y4&#45;&gt;z4</title>
<path fill="none" stroke="black" stroke-width="3" d="M981.477,-179C987.564,-179 993.651,-179 999.738,-179"/>
</g>
<!-- a5 -->
<g id="node52" class="node"><title>a5</title>
<ellipse fill="#ffffff" stroke="black" cx="1120" cy="-252" rx="18" ry="18"/>
<text text-anchor="middle" x="1120" y="-246.4" font-family="Helvetica,sans-Serif" font-size="14.00">a</text>
</g>
<!-- b5 -->
<g id="node53" class="node"><title>b5</title>
<ellipse fill="#ffffff" stroke="black" cx="1110" cy="-179" rx="18" ry="18"/>
<text text-anchor="middle" x="1110" y="-173.4" font-family="Helvetica,sans-Serif" font-size="14.00">b</text>
</g>
<!-- a5&#45;&gt;b5 -->
<g id="edge140" class="edge"><title>a5&#45;&gt;b5</title>
<path fill="none" stroke="black" stroke-width="3" d="M1117.58,-233.813C1116.01,-222.65 1113.97,-208.16 1112.4,-197.029"/>
</g>
<!-- c5 -->
<g id="node54" class="node"><title>c5</title>
<ellipse fill="#ffffff" stroke="black" cx="1130" cy="-106" rx="18" ry="18"/>
<text text-anchor="middle" x="1130" y="-100.4" font-family="Helvetica,sans-Serif" font-size="14.00">c</text>
</g>
<!-- a5&#45;&gt;c5 -->
<g id="edge142" class="edge"><title>a5&#45;&gt;c5</title>
<path fill="none" stroke="black" stroke-width="3" d="M1126.54,-235.078C1130.43,-224.715 1135,-210.793 1137,-198 1141.02,-172.326 1137.01,-142.2 1133.62,-123.863"/>
</g>
<!-- x5 -->
<g id="node57" class="node"><title>x5</title>
<ellipse fill="#ff9999" stroke="black" cx="1218" cy="-252" rx="18.0157" ry="18.0209"/>
<text text-anchor="middle" x="1218" y="-246.4" font-family="Helvetica,sans-Serif" font-size="14.00">R</text>
</g>
<!-- a5&#45;&gt;x5 -->
<g id="edge156" class="edge"><title>a5&#45;&gt;x5</title>
<path fill="none" stroke="red" stroke-width="2" stroke-dasharray="5,2" d="M1138.38,-252C1155.54,-252 1172.7,-252 1189.86,-252"/>
<polygon fill="red" stroke="red" points="1189.96,-255.5 1199.96,-252 1189.96,-248.5 1189.96,-255.5"/>
</g>
<!-- b5&#45;&gt;c5 -->
<g id="edge144" class="edge"><title>b5&#45;&gt;c5</title>
<path fill="none" stroke="black" stroke-width="3" d="M1114.64,-161.533C1117.82,-150.226 1122.04,-135.263 1125.25,-123.871"/>
</g>
<!-- d5 -->
<g id="node55" class="node"><title>d5</title>
<ellipse fill="#ffffff" stroke="black" cx="1120" cy="-34" rx="18" ry="18"/>
<text text-anchor="middle" x="1120" y="-28.4" font-family="Helvetica,sans-Serif" font-size="14.00">d</text>
</g>
<!-- b5&#45;&gt;d5 -->
<g id="edge146" class="edge"><title>b5&#45;&gt;d5</title>
<path fill="none" stroke="black" stroke-width="3" d="M1106.4,-161.323C1103.02,-143.188 1099.03,-113.393 1103,-88 1105,-75.207 1109.57,-61.2854 1113.46,-50.9218"/>
</g>
<!-- z5 -->
<g id="node59" class="node"><title>z5</title>
<ellipse fill="#9999ff" stroke="black" cx="1246" cy="-179" rx="18" ry="18"/>
<text text-anchor="middle" x="1246" y="-173.4" font-family="Helvetica,sans-Serif" font-size="14.00">B</text>
</g>
<!-- b5&#45;&gt;z5 -->
<g id="edge158" class="edge"><title>b5&#45;&gt;z5</title>
<path fill="none" stroke="red" stroke-width="2" stroke-dasharray="5,2" d="M1123.92,-190.921C1135.23,-199.772 1152.04,-211.121 1169,-216 1186.09,-220.914 1192.58,-222.803 1209,-216 1216.39,-212.941 1223.07,-207.613 1228.65,-201.937"/>
<polygon fill="red" stroke="red" points="1231.53,-203.964 1235.56,-194.163 1226.3,-199.316 1231.53,-203.964"/>
</g>
<!-- c5&#45;&gt;d5 -->
<g id="edge148" class="edge"><title>c5&#45;&gt;d5</title>
<path fill="none" stroke="black" stroke-width="3" d="M1127.58,-88.055C1126.03,-77.2111 1124.03,-63.183 1122.47,-52.2753"/>
</g>
<!-- y5 -->
<g id="node58" class="node"><title>y5</title>
<ellipse fill="#99ff99" stroke="black" cx="1191" cy="-179" rx="18.3214" ry="18.5961"/>
<text text-anchor="middle" x="1191" y="-173.4" font-family="Helvetica,sans-Serif" font-size="14.00">G</text>
</g>
<!-- c5&#45;&gt;y5 -->
<g id="edge160" class="edge"><title>c5&#45;&gt;y5</title>
<path fill="none" stroke="red" stroke-width="2" stroke-dasharray="5,2" d="M1141.31,-120.167C1150.08,-130.375 1162.42,-144.73 1172.6,-156.585"/>
<polygon fill="red" stroke="red" points="1170.07,-159.006 1179.24,-164.31 1175.38,-154.445 1170.07,-159.006"/>
</g>
<!-- d5&#45;&gt;x5 -->
<g id="edge162" class="edge"><title>d5&#45;&gt;x5</title>
<path fill="none" stroke="red" stroke-width="2" stroke-dasharray="5,2" d="M1136.49,-41.5854C1169.7,-55.8742 1243.96,-93.2426 1273,-152 1282.06,-170.329 1281,-179.185 1273,-198 1266.49,-213.319 1253.14,-226.359 1241.22,-235.67"/>
<polygon fill="red" stroke="red" points="1238.9,-233.03 1232.92,-241.771 1243.05,-238.672 1238.9,-233.03"/>
</g>
<!-- x5&#45;&gt;y5 -->
<g id="edge150" class="edge"><title>x5&#45;&gt;y5</title>
<path fill="none" stroke="black" stroke-width="3" d="M1211.87,-234.889C1207.52,-223.433 1201.68,-208.091 1197.29,-196.54"/>
</g>
<!-- x5&#45;&gt;z5 -->
<g id="edge152" class="edge"><title>x5&#45;&gt;z5</title>
<path fill="none" stroke="black" stroke-width="3" d="M1224.35,-234.889C1228.94,-223.269 1235.09,-207.652 1239.67,-196.047"/>
</g>
<!-- y5&#45;&gt;z5 -->
<g id="edge154" class="edge"><title>y5&#45;&gt;z5</title>
<path fill="none" stroke="black" stroke-width="3" d="M1209.48,-179C1215.56,-179 1221.65,-179 1227.74,-179"/>
</g>
</g>
</svg>
