global,rankdir=TB ranksep=0.3 nodesep=0.3 node[fontname=Helvetica], 
none,none,
subgraph,style=filled color="#F2F2F2",
"lred",$1node[shape=circle style=filled fillcolor="#FFEEEE"],
"lblue",$1node[shape=circle style=filled fillcolor="#EEFFEE"],
"lgreen",$1node[shape=circle style=filled fillcolor="#EEEEFF"],
"red",$2node[shape=circle style=filled fillcolor="#FF9999" label=R],
"blue",$2node[shape=circle style=filled fillcolor="#9999FF" label=B],
"green",$2node[shape=circle style=filled fillcolor="#99FF99" label=G],
"g1",edge[color=black arrowhead=none style=solid constraint=true penwidth=3],
"g2",edge[color=black arrowhead=none style=solid constraint=true penwidth=3],
"h",edge[color=red arrowhead=normal style=dashed penwidth=2 constraint=false],
split,edge[style=invisible arrowhead=none constraint=true],
