<?xml version="1.0" encoding="UTF-8" standalone="no"?>
<!DOCTYPE svg PUBLIC "-//W3C//DTD SVG 1.1//EN"
 "http://www.w3.org/Graphics/SVG/1.1/DTD/svg11.dtd">
<!-- Generated by graphviz version 2.36.0 (20140111.2315)
 -->
<!-- Title: %3 Pages: 1 -->
<svg width="260pt" height="182pt"
 viewBox="0.00 0.00 260.00 182.00" xmlns="http://www.w3.org/2000/svg" xmlns:xlink="http://www.w3.org/1999/xlink">
<g id="graph0" class="graph" transform="scale(1 1) rotate(0) translate(4 178)">
<title>%3</title>
<polygon fill="white" stroke="none" points="-4,4 -4,-178 256,-178 256,4 -4,4"/>
<!-- a_1%0 -->
<g id="node1" class="node"><title>a_1%0</title>
<ellipse fill="white" stroke="black" cx="18" cy="-133" rx="18" ry="18"/>
<text text-anchor="middle" x="18" y="-129.3" font-family="Times New Roman,serif" font-size="14.00">a</text>
</g>
<!-- b_1%0 -->
<g id="node2" class="node"><title>b_1%0</title>
<ellipse fill="white" stroke="black" cx="90" cy="-156" rx="18" ry="18"/>
<text text-anchor="middle" x="90" y="-152.3" font-family="Times New Roman,serif" font-size="14.00">b</text>
</g>
<!-- a_1%0&#45;&gt;b_1%0 -->
<g id="edge1" class="edge"><title>a_1%0&#45;&gt;b_1%0</title>
<path fill="none" stroke="black" stroke-width="3" d="M35.2354,-138.334C43.4215,-141.024 53.5521,-144.353 62.8047,-147.393"/>
<polygon fill="black" stroke="black" stroke-width="3" points="61.7737,-150.738 72.3666,-150.535 63.9588,-144.088 61.7737,-150.738"/>
</g>
<!-- c_1%0 -->
<g id="node3" class="node"><title>c_1%0</title>
<ellipse fill="white" stroke="black" cx="162" cy="-110" rx="18" ry="18"/>
<text text-anchor="middle" x="162" y="-106.3" font-family="Times New Roman,serif" font-size="14.00">c</text>
</g>
<!-- b_1%0&#45;&gt;c_1%0 -->
<g id="edge2" class="edge"><title>b_1%0&#45;&gt;c_1%0</title>
<path fill="none" stroke="black" stroke-width="3" d="M105.504,-146.469C114.89,-140.301 127.312,-132.138 138.023,-125.099"/>
<polygon fill="black" stroke="black" stroke-width="3" points="140.08,-127.936 146.515,-119.519 136.235,-122.086 140.08,-127.936"/>
</g>
<!-- c_1%0&#45;&gt;a_1%0 -->
<g id="edge3" class="edge"><title>c_1%0&#45;&gt;a_1%0</title>
<path fill="none" stroke="black" stroke-width="3" d="M144.175,-112.725C119.954,-116.648 75.0004,-123.93 46.0725,-128.615"/>
<polygon fill="black" stroke="black" stroke-width="3" points="45.1586,-125.217 35.8469,-130.271 46.2779,-132.127 45.1586,-125.217"/>
</g>
<!-- d_1%0 -->
<g id="node4" class="node"><title>d_1%0</title>
<ellipse fill="white" stroke="black" cx="162" cy="-18" rx="18" ry="18"/>
<text text-anchor="middle" x="162" y="-14.3" font-family="Times New Roman,serif" font-size="14.00">d</text>
</g>
<!-- e_1%0 -->
<g id="node5" class="node"><title>e_1%0</title>
<ellipse fill="white" stroke="black" cx="234" cy="-41" rx="18" ry="18"/>
<text text-anchor="middle" x="234" y="-37.3" font-family="Times New Roman,serif" font-size="14.00">e</text>
</g>
<!-- d_1%0&#45;&gt;e_1%0 -->
<g id="edge4" class="edge"><title>d_1%0&#45;&gt;e_1%0</title>
<path fill="none" stroke="black" stroke-width="3" d="M179.235,-23.3345C187.422,-26.0242 197.552,-29.3528 206.805,-32.393"/>
<polygon fill="black" stroke="black" stroke-width="3" points="205.774,-35.7383 216.367,-35.5347 207.959,-29.088 205.774,-35.7383"/>
</g>
<!-- f_1%0 -->
<g id="node6" class="node"><title>f_1%0</title>
<ellipse fill="white" stroke="black" cx="90" cy="-64" rx="18" ry="18"/>
<text text-anchor="middle" x="90" y="-60.3" font-family="Times New Roman,serif" font-size="14.00">f</text>
</g>
<!-- e_1%0&#45;&gt;f_1%0 -->
<g id="edge5" class="edge"><title>e_1%0&#45;&gt;f_1%0</title>
<path fill="none" stroke="black" stroke-width="3" d="M216.175,-43.7252C191.954,-47.6483 147,-54.9295 118.072,-59.615"/>
<polygon fill="black" stroke="black" stroke-width="3" points="117.159,-56.2173 107.847,-61.2713 118.278,-63.1273 117.159,-56.2173"/>
</g>
<!-- f_1%0&#45;&gt;c_1%0 -->
<g id="edge7" class="edge"><title>f_1%0&#45;&gt;c_1%0</title>
<path fill="none" stroke="#aaaaaa" d="M105.504,-73.5312C114.89,-79.699 127.312,-87.8619 138.023,-94.901"/>
<polygon fill="#aaaaaa" stroke="#aaaaaa" points="136.235,-97.9141 146.515,-100.481 140.08,-92.0642 136.235,-97.9141"/>
</g>
<!-- f_1%0&#45;&gt;d_1%0 -->
<g id="edge6" class="edge"><title>f_1%0&#45;&gt;d_1%0</title>
<path fill="none" stroke="black" stroke-width="3" d="M105.504,-54.4688C114.89,-48.301 127.312,-40.1381 138.023,-33.099"/>
<polygon fill="black" stroke="black" stroke-width="3" points="140.08,-35.9358 146.515,-27.519 136.235,-30.0859 140.08,-35.9358"/>
</g>
</g>
</svg>
