global,rankdir=TB,
none,none,
nostyle,node[shape=circle style=filled fillcolor=white],
in,edge[color=black style=solid penwidth=3],
out,edge[color="#AAAAAA" penwidth=1],
split,edge[style=invisible arrowhead=none constraint=true],
