{edge(a,"n",b), edge(a,"n",c), edge(b,"n",c), edge(c,"n",d), vertex(a,red), vertex(b,green), vertex(c,blue), vertex(d,green)}
{edge(a,"n",b), edge(a,"n",c), edge(b,"n",c), edge(c,"n",d), vertex(a,red), vertex(b,green), vertex(c,blue), vertex(d,red)}
{edge(a,"n",b), edge(a,"n",c), edge(b,"n",c), edge(c,"n",d), vertex(a,green), vertex(b,red), vertex(c,blue), vertex(d,green)}
{edge(a,"n",b), edge(a,"n",c), edge(b,"n",c), edge(c,"n",d), vertex(a,green), vertex(b,red), vertex(c,blue), vertex(d,red)}
{edge(a,"n",b), edge(a,"n",c), edge(b,"n",c), edge(c,"n",d), vertex(a,red), vertex(b,blue), vertex(c,green), vertex(d,blue)}
{edge(a,"n",b), edge(a,"n",c), edge(b,"n",c), edge(c,"n",d), vertex(a,red), vertex(b,blue), vertex(c,green), vertex(d,red)}
{edge(a,"n",b), edge(a,"n",c), edge(b,"n",c), edge(c,"n",d), vertex(a,blue), vertex(b,red), vertex(c,green), vertex(d,blue)}
{edge(a,"n",b), edge(a,"n",c), edge(b,"n",c), edge(c,"n",d), vertex(a,blue), vertex(b,red), vertex(c,green), vertex(d,red)}
{edge(a,"n",b), edge(a,"n",c), edge(b,"n",c), edge(c,"n",d), vertex(a,green), vertex(b,blue), vertex(c,red), vertex(d,blue)}
{edge(a,"n",b), edge(a,"n",c), edge(b,"n",c), edge(c,"n",d), vertex(a,green), vertex(b,blue), vertex(c,red), vertex(d,green)}
{edge(a,"n",b), edge(a,"n",c), edge(b,"n",c), edge(c,"n",d), vertex(a,blue), vertex(b,green), vertex(c,red), vertex(d,blue)}
{edge(a,"n",b), edge(a,"n",c), edge(b,"n",c), edge(c,"n",d), vertex(a,blue), vertex(b,green), vertex(c,red), vertex(d,green)}
