<?xml version="1.0" encoding="UTF-8" standalone="no"?>
<!DOCTYPE svg PUBLIC "-//W3C//DTD SVG 1.1//EN"
 "http://www.w3.org/Graphics/SVG/1.1/DTD/svg11.dtd">
<!-- Generated by graphviz version 2.36.0 (20140111.2315)
 -->
<!-- Title: %3 Pages: 1 -->
<svg width="682pt" height="483pt"
 viewBox="0.00 0.00 682.00 483.00" xmlns="http://www.w3.org/2000/svg" xmlns:xlink="http://www.w3.org/1999/xlink">
<g id="graph0" class="graph" transform="scale(1 1) rotate(0) translate(4 479)">
<title>%3</title>
<polygon fill="white" stroke="none" points="-4,4 -4,-479 678,-479 678,4 -4,4"/>
<!-- a0 -->
<g id="node1" class="node"><title>a0</title>
<ellipse fill="red" stroke="black" cx="18" cy="-65" rx="18" ry="18"/>
<text text-anchor="middle" x="18" y="-61.3" font-family="Helvetica,sans-Serif" font-size="14.00">a</text>
</g>
<!-- b0 -->
<g id="node2" class="node"><title>b0</title>
<ellipse fill="#69fc81" stroke="black" cx="76" cy="-81" rx="18" ry="18"/>
<text text-anchor="middle" x="76" y="-77.3" font-family="Helvetica,sans-Serif" font-size="14.00">b</text>
</g>
<!-- a0&#45;&gt;b0 -->
<g id="edge1" class="edge"><title>a0&#45;&gt;b0</title>
<path fill="none" stroke="black" stroke-width="3" d="M35.499,-69.714C42.7259,-71.7788 51.19,-74.1971 58.4255,-76.2644"/>
</g>
<!-- c0 -->
<g id="node3" class="node"><title>c0</title>
<ellipse fill="#5d57fd" stroke="black" cx="134" cy="-52" rx="18" ry="18"/>
<text text-anchor="middle" x="134" y="-48.3" font-family="Helvetica,sans-Serif" font-size="14.00">c</text>
</g>
<!-- a0&#45;&gt;c0 -->
<g id="edge2" class="edge"><title>a0&#45;&gt;c0</title>
<path fill="none" stroke="black" stroke-width="3" d="M34.0779,-56.6972C41.1216,-53.2776 49.757,-49.7185 58,-48 77.6579,-43.9018 100.806,-46.1817 116.131,-48.6492"/>
</g>
<!-- b0&#45;&gt;c0 -->
<g id="edge3" class="edge"><title>b0&#45;&gt;c0</title>
<path fill="none" stroke="black" stroke-width="3" d="M92.3022,-73.0756C100.204,-68.9837 109.817,-64.0054 117.716,-59.9148"/>
</g>
<!-- d0 -->
<g id="node4" class="node"><title>d0</title>
<ellipse fill="#69fc81" stroke="black" cx="192" cy="-52" rx="18" ry="18"/>
<text text-anchor="middle" x="192" y="-48.3" font-family="Helvetica,sans-Serif" font-size="14.00">d</text>
</g>
<!-- c0&#45;&gt;d0 -->
<g id="edge4" class="edge"><title>c0&#45;&gt;d0</title>
<path fill="none" stroke="black" stroke-width="3" d="M152.106,-52C159.054,-52 167.062,-52 173.999,-52"/>
</g>
<!-- a4 -->
<g id="node17" class="node"><title>a4</title>
<ellipse fill="red" stroke="black" cx="250" cy="-52" rx="18" ry="18"/>
<text text-anchor="middle" x="250" y="-48.3" font-family="Helvetica,sans-Serif" font-size="14.00">a</text>
</g>
<!-- d0&#45;&gt;a4 -->
<g id="edge49" class="edge"><title>d0&#45;&gt;a4</title>
</g>
<!-- a1 -->
<g id="node5" class="node"><title>a1</title>
<ellipse fill="red" stroke="black" cx="18" cy="-160" rx="18" ry="18"/>
<text text-anchor="middle" x="18" y="-156.3" font-family="Helvetica,sans-Serif" font-size="14.00">a</text>
</g>
<!-- b1 -->
<g id="node6" class="node"><title>b1</title>
<ellipse fill="#69fc81" stroke="black" cx="76" cy="-206" rx="18" ry="18"/>
<text text-anchor="middle" x="76" y="-202.3" font-family="Helvetica,sans-Serif" font-size="14.00">b</text>
</g>
<!-- a1&#45;&gt;b1 -->
<g id="edge5" class="edge"><title>a1&#45;&gt;b1</title>
<path fill="none" stroke="black" stroke-width="3" d="M32.556,-171.135C41.3606,-178.368 52.7892,-187.755 61.5688,-194.967"/>
</g>
<!-- c1 -->
<g id="node7" class="node"><title>c1</title>
<ellipse fill="#5d57fd" stroke="black" cx="134" cy="-146" rx="18" ry="18"/>
<text text-anchor="middle" x="134" y="-142.3" font-family="Helvetica,sans-Serif" font-size="14.00">c</text>
</g>
<!-- a1&#45;&gt;c1 -->
<g id="edge6" class="edge"><title>a1&#45;&gt;c1</title>
<path fill="none" stroke="black" stroke-width="3" d="M36.3141,-157.874C57.8656,-155.227 94.4434,-150.735 115.896,-148.1"/>
</g>
<!-- b1&#45;&gt;c1 -->
<g id="edge7" class="edge"><title>b1&#45;&gt;c1</title>
<path fill="none" stroke="black" stroke-width="3" d="M88.8762,-193.276C98.3795,-183.093 111.642,-168.883 121.141,-158.706"/>
</g>
<!-- d1 -->
<g id="node8" class="node"><title>d1</title>
<ellipse fill="red" stroke="black" cx="192" cy="-146" rx="18" ry="18"/>
<text text-anchor="middle" x="192" y="-142.3" font-family="Helvetica,sans-Serif" font-size="14.00">d</text>
</g>
<!-- c1&#45;&gt;d1 -->
<g id="edge8" class="edge"><title>c1&#45;&gt;d1</title>
<path fill="none" stroke="black" stroke-width="3" d="M152.106,-146C159.054,-146 167.062,-146 173.999,-146"/>
</g>
<!-- a5 -->
<g id="node21" class="node"><title>a5</title>
<ellipse fill="red" stroke="black" cx="250" cy="-146" rx="18" ry="18"/>
<text text-anchor="middle" x="250" y="-142.3" font-family="Helvetica,sans-Serif" font-size="14.00">a</text>
</g>
<!-- d1&#45;&gt;a5 -->
<g id="edge50" class="edge"><title>d1&#45;&gt;a5</title>
</g>
<!-- a2 -->
<g id="node9" class="node"><title>a2</title>
<ellipse fill="#69fc81" stroke="black" cx="18" cy="-301" rx="18" ry="18"/>
<text text-anchor="middle" x="18" y="-297.3" font-family="Helvetica,sans-Serif" font-size="14.00">a</text>
</g>
<!-- b2 -->
<g id="node10" class="node"><title>b2</title>
<ellipse fill="red" stroke="black" cx="76" cy="-332" rx="18" ry="18"/>
<text text-anchor="middle" x="76" y="-328.3" font-family="Helvetica,sans-Serif" font-size="14.00">b</text>
</g>
<!-- a2&#45;&gt;b2 -->
<g id="edge9" class="edge"><title>a2&#45;&gt;b2</title>
<path fill="none" stroke="black" stroke-width="3" d="M34.007,-309.307C42.0417,-313.755 51.9106,-319.218 59.9516,-323.67"/>
</g>
<!-- c2 -->
<g id="node11" class="node"><title>c2</title>
<ellipse fill="#5d57fd" stroke="black" cx="134" cy="-299" rx="18" ry="18"/>
<text text-anchor="middle" x="134" y="-295.3" font-family="Helvetica,sans-Serif" font-size="14.00">c</text>
</g>
<!-- a2&#45;&gt;c2 -->
<g id="edge10" class="edge"><title>a2&#45;&gt;c2</title>
<path fill="none" stroke="black" stroke-width="3" d="M36.0846,-300.516C42.9017,-300.335 50.8219,-300.14 58,-300 77.7897,-299.614 100.52,-299.334 115.721,-299.17"/>
</g>
<!-- b2&#45;&gt;c2 -->
<g id="edge11" class="edge"><title>b2&#45;&gt;c2</title>
<path fill="none" stroke="black" stroke-width="3" d="M92.007,-323.157C100.042,-318.422 109.911,-312.606 117.952,-307.868"/>
</g>
<!-- d2 -->
<g id="node12" class="node"><title>d2</title>
<ellipse fill="#69fc81" stroke="black" cx="192" cy="-299" rx="18" ry="18"/>
<text text-anchor="middle" x="192" y="-295.3" font-family="Helvetica,sans-Serif" font-size="14.00">d</text>
</g>
<!-- c2&#45;&gt;d2 -->
<g id="edge12" class="edge"><title>c2&#45;&gt;d2</title>
<path fill="none" stroke="black" stroke-width="3" d="M152.106,-299C159.054,-299 167.062,-299 173.999,-299"/>
</g>
<!-- a6 -->
<g id="node25" class="node"><title>a6</title>
<ellipse fill="#5d57fd" stroke="black" cx="250" cy="-299" rx="18" ry="18"/>
<text text-anchor="middle" x="250" y="-295.3" font-family="Helvetica,sans-Serif" font-size="14.00">a</text>
</g>
<!-- d2&#45;&gt;a6 -->
<g id="edge51" class="edge"><title>d2&#45;&gt;a6</title>
</g>
<!-- a3 -->
<g id="node13" class="node"><title>a3</title>
<ellipse fill="#69fc81" stroke="black" cx="18" cy="-426" rx="18" ry="18"/>
<text text-anchor="middle" x="18" y="-422.3" font-family="Helvetica,sans-Serif" font-size="14.00">a</text>
</g>
<!-- b3 -->
<g id="node14" class="node"><title>b3</title>
<ellipse fill="red" stroke="black" cx="76" cy="-457" rx="18" ry="18"/>
<text text-anchor="middle" x="76" y="-453.3" font-family="Helvetica,sans-Serif" font-size="14.00">b</text>
</g>
<!-- a3&#45;&gt;b3 -->
<g id="edge13" class="edge"><title>a3&#45;&gt;b3</title>
<path fill="none" stroke="black" stroke-width="3" d="M34.007,-434.307C42.0417,-438.755 51.9106,-444.218 59.9516,-448.67"/>
</g>
<!-- c3 -->
<g id="node15" class="node"><title>c3</title>
<ellipse fill="#5d57fd" stroke="black" cx="134" cy="-395" rx="18" ry="18"/>
<text text-anchor="middle" x="134" y="-391.3" font-family="Helvetica,sans-Serif" font-size="14.00">c</text>
</g>
<!-- a3&#45;&gt;c3 -->
<g id="edge14" class="edge"><title>a3&#45;&gt;c3</title>
<path fill="none" stroke="black" stroke-width="3" d="M35.8211,-421.426C57.4985,-415.531 94.9506,-405.347 116.481,-399.492"/>
</g>
<!-- b3&#45;&gt;c3 -->
<g id="edge15" class="edge"><title>b3&#45;&gt;c3</title>
<path fill="none" stroke="black" stroke-width="3" d="M88.8762,-443.851C98.3795,-433.33 111.642,-418.646 121.141,-408.13"/>
</g>
<!-- d3 -->
<g id="node16" class="node"><title>d3</title>
<ellipse fill="red" stroke="black" cx="192" cy="-395" rx="18" ry="18"/>
<text text-anchor="middle" x="192" y="-391.3" font-family="Helvetica,sans-Serif" font-size="14.00">d</text>
</g>
<!-- c3&#45;&gt;d3 -->
<g id="edge16" class="edge"><title>c3&#45;&gt;d3</title>
<path fill="none" stroke="black" stroke-width="3" d="M152.106,-395C159.054,-395 167.062,-395 173.999,-395"/>
</g>
<!-- a7 -->
<g id="node29" class="node"><title>a7</title>
<ellipse fill="#5d57fd" stroke="black" cx="250" cy="-395" rx="18" ry="18"/>
<text text-anchor="middle" x="250" y="-391.3" font-family="Helvetica,sans-Serif" font-size="14.00">a</text>
</g>
<!-- d3&#45;&gt;a7 -->
<g id="edge52" class="edge"><title>d3&#45;&gt;a7</title>
</g>
<!-- b4 -->
<g id="node18" class="node"><title>b4</title>
<ellipse fill="#5d57fd" stroke="black" cx="308" cy="-64" rx="18" ry="18"/>
<text text-anchor="middle" x="308" y="-60.3" font-family="Helvetica,sans-Serif" font-size="14.00">b</text>
</g>
<!-- a4&#45;&gt;b4 -->
<g id="edge17" class="edge"><title>a4&#45;&gt;b4</title>
<path fill="none" stroke="black" stroke-width="3" d="M267.802,-55.6004C274.89,-57.1192 283.124,-58.8836 290.21,-60.4021"/>
</g>
<!-- c4 -->
<g id="node19" class="node"><title>c4</title>
<ellipse fill="#69fc81" stroke="black" cx="366" cy="-18" rx="18" ry="18"/>
<text text-anchor="middle" x="366" y="-14.3" font-family="Helvetica,sans-Serif" font-size="14.00">c</text>
</g>
<!-- a4&#45;&gt;c4 -->
<g id="edge18" class="edge"><title>a4&#45;&gt;c4</title>
<path fill="none" stroke="black" stroke-width="3" d="M265.67,-42.6423C272.771,-38.4991 281.569,-33.9141 290,-31 309.235,-24.3518 332.468,-20.9978 347.929,-19.3805"/>
</g>
<!-- b4&#45;&gt;c4 -->
<g id="edge19" class="edge"><title>b4&#45;&gt;c4</title>
<path fill="none" stroke="black" stroke-width="3" d="M322.556,-52.8647C331.361,-45.6323 342.789,-36.2446 351.569,-29.0328"/>
</g>
<!-- d4 -->
<g id="node20" class="node"><title>d4</title>
<ellipse fill="#5d57fd" stroke="black" cx="424" cy="-18" rx="18" ry="18"/>
<text text-anchor="middle" x="424" y="-14.3" font-family="Helvetica,sans-Serif" font-size="14.00">d</text>
</g>
<!-- c4&#45;&gt;d4 -->
<g id="edge20" class="edge"><title>c4&#45;&gt;d4</title>
<path fill="none" stroke="black" stroke-width="3" d="M384.106,-18C391.054,-18 399.062,-18 405.999,-18"/>
</g>
<!-- a8 -->
<g id="node33" class="node"><title>a8</title>
<ellipse fill="#69fc81" stroke="black" cx="482" cy="-18" rx="18" ry="18"/>
<text text-anchor="middle" x="482" y="-14.3" font-family="Helvetica,sans-Serif" font-size="14.00">a</text>
</g>
<!-- d4&#45;&gt;a8 -->
<g id="edge53" class="edge"><title>d4&#45;&gt;a8</title>
</g>
<!-- b5 -->
<g id="node22" class="node"><title>b5</title>
<ellipse fill="#5d57fd" stroke="black" cx="308" cy="-205" rx="18" ry="18"/>
<text text-anchor="middle" x="308" y="-201.3" font-family="Helvetica,sans-Serif" font-size="14.00">b</text>
</g>
<!-- a5&#45;&gt;b5 -->
<g id="edge21" class="edge"><title>a5&#45;&gt;b5</title>
<path fill="none" stroke="black" stroke-width="3" d="M263.151,-158.802C272.544,-168.698 285.485,-182.333 294.873,-192.223"/>
</g>
<!-- c5 -->
<g id="node23" class="node"><title>c5</title>
<ellipse fill="#69fc81" stroke="black" cx="366" cy="-173" rx="18" ry="18"/>
<text text-anchor="middle" x="366" y="-169.3" font-family="Helvetica,sans-Serif" font-size="14.00">c</text>
</g>
<!-- a5&#45;&gt;c5 -->
<g id="edge22" class="edge"><title>a5&#45;&gt;c5</title>
<path fill="none" stroke="black" stroke-width="3" d="M267.821,-149.984C289.375,-155.089 326.523,-163.887 348.11,-169"/>
</g>
<!-- b5&#45;&gt;c5 -->
<g id="edge23" class="edge"><title>b5&#45;&gt;c5</title>
<path fill="none" stroke="black" stroke-width="3" d="M324.007,-196.425C332.042,-191.833 341.911,-186.194 349.952,-181.599"/>
</g>
<!-- d5 -->
<g id="node24" class="node"><title>d5</title>
<ellipse fill="red" stroke="black" cx="424" cy="-173" rx="18" ry="18"/>
<text text-anchor="middle" x="424" y="-169.3" font-family="Helvetica,sans-Serif" font-size="14.00">d</text>
</g>
<!-- c5&#45;&gt;d5 -->
<g id="edge24" class="edge"><title>c5&#45;&gt;d5</title>
<path fill="none" stroke="black" stroke-width="3" d="M384.106,-173C391.054,-173 399.062,-173 405.999,-173"/>
</g>
<!-- a9 -->
<g id="node37" class="node"><title>a9</title>
<ellipse fill="#69fc81" stroke="black" cx="482" cy="-173" rx="18" ry="18"/>
<text text-anchor="middle" x="482" y="-169.3" font-family="Helvetica,sans-Serif" font-size="14.00">a</text>
</g>
<!-- d5&#45;&gt;a9 -->
<g id="edge54" class="edge"><title>d5&#45;&gt;a9</title>
</g>
<!-- b6 -->
<g id="node26" class="node"><title>b6</title>
<ellipse fill="red" stroke="black" cx="308" cy="-329" rx="18" ry="18"/>
<text text-anchor="middle" x="308" y="-325.3" font-family="Helvetica,sans-Serif" font-size="14.00">b</text>
</g>
<!-- a6&#45;&gt;b6 -->
<g id="edge25" class="edge"><title>a6&#45;&gt;b6</title>
<path fill="none" stroke="black" stroke-width="3" d="M266.302,-307.198C274.204,-311.431 283.817,-316.581 291.716,-320.812"/>
</g>
<!-- c6 -->
<g id="node27" class="node"><title>c6</title>
<ellipse fill="#69fc81" stroke="black" cx="366" cy="-268" rx="18" ry="18"/>
<text text-anchor="middle" x="366" y="-264.3" font-family="Helvetica,sans-Serif" font-size="14.00">c</text>
</g>
<!-- a6&#45;&gt;c6 -->
<g id="edge26" class="edge"><title>a6&#45;&gt;c6</title>
<path fill="none" stroke="black" stroke-width="3" d="M267.821,-294.426C289.499,-288.531 326.951,-278.347 348.481,-272.492"/>
</g>
<!-- b6&#45;&gt;c6 -->
<g id="edge27" class="edge"><title>b6&#45;&gt;c6</title>
<path fill="none" stroke="black" stroke-width="3" d="M320.876,-316.063C330.38,-305.712 343.642,-291.265 353.141,-280.918"/>
</g>
<!-- d6 -->
<g id="node28" class="node"><title>d6</title>
<ellipse fill="#5d57fd" stroke="black" cx="424" cy="-268" rx="18" ry="18"/>
<text text-anchor="middle" x="424" y="-264.3" font-family="Helvetica,sans-Serif" font-size="14.00">d</text>
</g>
<!-- c6&#45;&gt;d6 -->
<g id="edge28" class="edge"><title>c6&#45;&gt;d6</title>
<path fill="none" stroke="black" stroke-width="3" d="M384.106,-268C391.054,-268 399.062,-268 405.999,-268"/>
</g>
<!-- a10 -->
<g id="node41" class="node"><title>a10</title>
<ellipse fill="#5d57fd" stroke="black" cx="482" cy="-268" rx="18" ry="18"/>
<text text-anchor="middle" x="482" y="-264.3" font-family="Helvetica,sans-Serif" font-size="14.00">a</text>
</g>
<!-- d6&#45;&gt;a10 -->
<g id="edge55" class="edge"><title>d6&#45;&gt;a10</title>
</g>
<!-- b7 -->
<g id="node30" class="node"><title>b7</title>
<ellipse fill="red" stroke="black" cx="308" cy="-456" rx="18" ry="18"/>
<text text-anchor="middle" x="308" y="-452.3" font-family="Helvetica,sans-Serif" font-size="14.00">b</text>
</g>
<!-- a7&#45;&gt;b7 -->
<g id="edge29" class="edge"><title>a7&#45;&gt;b7</title>
<path fill="none" stroke="black" stroke-width="3" d="M262.876,-407.937C272.38,-418.288 285.642,-432.735 295.141,-443.082"/>
</g>
<!-- c7 -->
<g id="node31" class="node"><title>c7</title>
<ellipse fill="#69fc81" stroke="black" cx="366" cy="-401" rx="18" ry="18"/>
<text text-anchor="middle" x="366" y="-397.3" font-family="Helvetica,sans-Serif" font-size="14.00">c</text>
</g>
<!-- a7&#45;&gt;c7 -->
<g id="edge30" class="edge"><title>a7&#45;&gt;c7</title>
<path fill="none" stroke="black" stroke-width="3" d="M268.314,-395.911C289.866,-397.046 326.443,-398.971 347.896,-400.1"/>
</g>
<!-- b7&#45;&gt;c7 -->
<g id="edge31" class="edge"><title>b7&#45;&gt;c7</title>
<path fill="none" stroke="black" stroke-width="3" d="M321.428,-443.794C330.708,-434.679 343.335,-422.278 352.607,-413.172"/>
</g>
<!-- d7 -->
<g id="node32" class="node"><title>d7</title>
<ellipse fill="red" stroke="black" cx="424" cy="-401" rx="18" ry="18"/>
<text text-anchor="middle" x="424" y="-397.3" font-family="Helvetica,sans-Serif" font-size="14.00">d</text>
</g>
<!-- c7&#45;&gt;d7 -->
<g id="edge32" class="edge"><title>c7&#45;&gt;d7</title>
<path fill="none" stroke="black" stroke-width="3" d="M384.106,-401C391.054,-401 399.062,-401 405.999,-401"/>
</g>
<!-- a11 -->
<g id="node45" class="node"><title>a11</title>
<ellipse fill="#5d57fd" stroke="black" cx="482" cy="-401" rx="18" ry="18"/>
<text text-anchor="middle" x="482" y="-397.3" font-family="Helvetica,sans-Serif" font-size="14.00">a</text>
</g>
<!-- d7&#45;&gt;a11 -->
<g id="edge56" class="edge"><title>d7&#45;&gt;a11</title>
</g>
<!-- b8 -->
<g id="node34" class="node"><title>b8</title>
<ellipse fill="#5d57fd" stroke="black" cx="540" cy="-68" rx="18" ry="18"/>
<text text-anchor="middle" x="540" y="-64.3" font-family="Helvetica,sans-Serif" font-size="14.00">b</text>
</g>
<!-- a8&#45;&gt;b8 -->
<g id="edge33" class="edge"><title>a8&#45;&gt;b8</title>
<path fill="none" stroke="black" stroke-width="3" d="M495.988,-29.5967C505.035,-37.6743 517.051,-48.4024 526.082,-56.4662"/>
</g>
<!-- c8 -->
<g id="node35" class="node"><title>c8</title>
<ellipse fill="red" stroke="black" cx="598" cy="-52" rx="18" ry="18"/>
<text text-anchor="middle" x="598" y="-48.3" font-family="Helvetica,sans-Serif" font-size="14.00">c</text>
</g>
<!-- a8&#45;&gt;c8 -->
<g id="edge34" class="edge"><title>a8&#45;&gt;c8</title>
<path fill="none" stroke="black" stroke-width="3" d="M499.927,-20.8935C515.291,-23.7411 538.464,-28.5912 558,-35 565.86,-37.5785 574.308,-41.1548 581.324,-44.3621"/>
</g>
<!-- b8&#45;&gt;c8 -->
<g id="edge35" class="edge"><title>b8&#45;&gt;c8</title>
<path fill="none" stroke="black" stroke-width="3" d="M557.499,-63.286C564.726,-61.2212 573.19,-58.8029 580.425,-56.7356"/>
</g>
<!-- d8 -->
<g id="node36" class="node"><title>d8</title>
<ellipse fill="#5d57fd" stroke="black" cx="656" cy="-52" rx="18" ry="18"/>
<text text-anchor="middle" x="656" y="-48.3" font-family="Helvetica,sans-Serif" font-size="14.00">d</text>
</g>
<!-- c8&#45;&gt;d8 -->
<g id="edge36" class="edge"><title>c8&#45;&gt;d8</title>
<path fill="none" stroke="black" stroke-width="3" d="M616.106,-52C623.054,-52 631.062,-52 637.999,-52"/>
</g>
<!-- b9 -->
<g id="node38" class="node"><title>b9</title>
<ellipse fill="#5d57fd" stroke="black" cx="540" cy="-193" rx="18" ry="18"/>
<text text-anchor="middle" x="540" y="-189.3" font-family="Helvetica,sans-Serif" font-size="14.00">b</text>
</g>
<!-- a9&#45;&gt;b9 -->
<g id="edge37" class="edge"><title>a9&#45;&gt;b9</title>
<path fill="none" stroke="black" stroke-width="3" d="M499.198,-178.785C506.563,-181.415 515.261,-184.522 522.645,-187.159"/>
</g>
<!-- c9 -->
<g id="node39" class="node"><title>c9</title>
<ellipse fill="red" stroke="black" cx="598" cy="-147" rx="18" ry="18"/>
<text text-anchor="middle" x="598" y="-143.3" font-family="Helvetica,sans-Serif" font-size="14.00">c</text>
</g>
<!-- a9&#45;&gt;c9 -->
<g id="edge38" class="edge"><title>a9&#45;&gt;c9</title>
<path fill="none" stroke="black" stroke-width="3" d="M499.158,-167.009C506.116,-164.587 514.387,-161.917 522,-160 541.607,-155.063 564.567,-151.383 579.869,-149.222"/>
</g>
<!-- b9&#45;&gt;c9 -->
<g id="edge39" class="edge"><title>b9&#45;&gt;c9</title>
<path fill="none" stroke="black" stroke-width="3" d="M554.556,-181.865C563.361,-174.632 574.789,-165.245 583.569,-158.033"/>
</g>
<!-- d9 -->
<g id="node40" class="node"><title>d9</title>
<ellipse fill="#69fc81" stroke="black" cx="656" cy="-147" rx="18" ry="18"/>
<text text-anchor="middle" x="656" y="-143.3" font-family="Helvetica,sans-Serif" font-size="14.00">d</text>
</g>
<!-- c9&#45;&gt;d9 -->
<g id="edge40" class="edge"><title>c9&#45;&gt;d9</title>
<path fill="none" stroke="black" stroke-width="3" d="M616.106,-147C623.054,-147 631.062,-147 637.999,-147"/>
</g>
<!-- b10 -->
<g id="node42" class="node"><title>b10</title>
<ellipse fill="#69fc81" stroke="black" cx="540" cy="-326" rx="18" ry="18"/>
<text text-anchor="middle" x="540" y="-322.3" font-family="Helvetica,sans-Serif" font-size="14.00">b</text>
</g>
<!-- a10&#45;&gt;b10 -->
<g id="edge41" class="edge"><title>a10&#45;&gt;b10</title>
<path fill="none" stroke="black" stroke-width="3" d="M495.151,-280.585C504.544,-290.314 517.485,-303.717 526.873,-313.439"/>
</g>
<!-- c10 -->
<g id="node43" class="node"><title>c10</title>
<ellipse fill="red" stroke="black" cx="598" cy="-295" rx="18" ry="18"/>
<text text-anchor="middle" x="598" y="-291.3" font-family="Helvetica,sans-Serif" font-size="14.00">c</text>
</g>
<!-- a10&#45;&gt;c10 -->
<g id="edge42" class="edge"><title>a10&#45;&gt;c10</title>
<path fill="none" stroke="black" stroke-width="3" d="M499.821,-271.984C521.375,-277.089 558.523,-285.887 580.11,-291"/>
</g>
<!-- b10&#45;&gt;c10 -->
<g id="edge43" class="edge"><title>b10&#45;&gt;c10</title>
<path fill="none" stroke="black" stroke-width="3" d="M556.007,-317.693C564.042,-313.245 573.911,-307.782 581.952,-303.33"/>
</g>
<!-- d10 -->
<g id="node44" class="node"><title>d10</title>
<ellipse fill="#5d57fd" stroke="black" cx="656" cy="-295" rx="18" ry="18"/>
<text text-anchor="middle" x="656" y="-291.3" font-family="Helvetica,sans-Serif" font-size="14.00">d</text>
</g>
<!-- c10&#45;&gt;d10 -->
<g id="edge44" class="edge"><title>c10&#45;&gt;d10</title>
<path fill="none" stroke="black" stroke-width="3" d="M616.106,-295C623.054,-295 631.062,-295 637.999,-295"/>
</g>
<!-- b11 -->
<g id="node46" class="node"><title>b11</title>
<ellipse fill="#69fc81" stroke="black" cx="540" cy="-455" rx="18" ry="18"/>
<text text-anchor="middle" x="540" y="-451.3" font-family="Helvetica,sans-Serif" font-size="14.00">b</text>
</g>
<!-- a11&#45;&gt;b11 -->
<g id="edge45" class="edge"><title>a11&#45;&gt;b11</title>
<path fill="none" stroke="black" stroke-width="3" d="M495.707,-413.253C504.872,-422.091 517.19,-433.969 526.343,-442.795"/>
</g>
<!-- c11 -->
<g id="node47" class="node"><title>c11</title>
<ellipse fill="red" stroke="black" cx="598" cy="-424" rx="18" ry="18"/>
<text text-anchor="middle" x="598" y="-420.3" font-family="Helvetica,sans-Serif" font-size="14.00">c</text>
</g>
<!-- a11&#45;&gt;c11 -->
<g id="edge46" class="edge"><title>a11&#45;&gt;c11</title>
<path fill="none" stroke="black" stroke-width="3" d="M499.821,-404.394C521.375,-408.742 558.523,-416.237 580.11,-420.592"/>
</g>
<!-- b11&#45;&gt;c11 -->
<g id="edge47" class="edge"><title>b11&#45;&gt;c11</title>
<path fill="none" stroke="black" stroke-width="3" d="M556.007,-446.693C564.042,-442.245 573.911,-436.782 581.952,-432.33"/>
</g>
<!-- d11 -->
<g id="node48" class="node"><title>d11</title>
<ellipse fill="#69fc81" stroke="black" cx="656" cy="-424" rx="18" ry="18"/>
<text text-anchor="middle" x="656" y="-420.3" font-family="Helvetica,sans-Serif" font-size="14.00">d</text>
</g>
<!-- c11&#45;&gt;d11 -->
<g id="edge48" class="edge"><title>c11&#45;&gt;d11</title>
<path fill="none" stroke="black" stroke-width="3" d="M616.106,-424C623.054,-424 631.062,-424 637.999,-424"/>
</g>
</g>
</svg>
